…
```r
# random sample 
weather_tpa
```

```
## # A tibble: 365 × 7
##     year month   day precipitation max_temp min_temp ave_temp
##    <dbl> <dbl> <dbl>         <dbl>    <dbl>    <dbl>    <dbl>
##  1  2022     1     1       0             82       67     74.5
##  2  2022     1     2       0             82       71     76.5
##  3  2022     1     3       0.02          75       55     65  
##  4  2022     1     4       0             76       50     63  
##  5  2022     1     5       0             75       59     67  
##  6  2022     1     6       0.00001       74       56     65  
##  7  2022     1     7       0.00001       81       63     72  
##  8  2022     1     8       0             81       58     69.5
##  9  2022     1     9       0             84       65     74.5
## 10  2022     1    10       0             81       64     72.5
## # ℹ 355 more rows
```
…
```r
#firstly, wrangling data
tpa_clean <- weather_tpa %>% 
  unite("doy", year, month, day, sep = "-") %>% 
  mutate(doy = ymd(doy), 
         max_temp = as.double(max_temp), 
         min_temp = as.double(min_temp), 
         precipitation = as.double(precipitation)) %>%
   mutate(month = month(floor_date(doy, "month"), label = TRUE, abbr = FALSE))

tpa_clean
```

```
## # A tibble: 365 × 6
##    doy        precipitation max_temp min_temp ave_temp month  
##    <date>             <dbl>    <dbl>    <dbl>    <dbl> <ord>  
##  1 2022-01-01       0             82       67     74.5 January
##  2 2022-01-02       0             82       71     76.5 January
##  3 2022-01-03       0.02          75       55     65   January
##  4 2022-01-04       0             76       50     63   January
##  5 2022-01-05       0             75       59     67   January
##  6 2022-01-06       0.00001       74       56     65   January
##  7 2022-01-07       0.00001       81       63     72   January
##  8 2022-01-08       0             81       58     69.5 January
##  9 2022-01-09       0             84       65     74.5 January
## 10 2022-01-10       0             81       64     72.5 January
## # ℹ 355 more rows
```
…
(e) Create a plot of your choice that uses the attribute for precipitation _(values of -99.9 for temperature or -99.99 for precipitation represent missing data)_.


```r
#will do a similar plot to part a, except i will discount those days where it didnt rain. this will show how much (in inches according to the FCC) it rains on the rainy days of each month. this means someone could hear that it's going to rain, and based on what month it is, know with some certainty how much it will be raining.

#first, excluding nonzero data.
tpa_precip <- tpa_clean %>%
  filter(precipitation > 0.25)
  
tpa_precip
```

```
## # A tibble: 52 × 6
##    doy        precipitation max_temp min_temp ave_temp month   
##    <date>             <dbl>    <dbl>    <dbl>    <dbl> <ord>   
##  1 2022-01-16          0.68       71       62     66.5 January 
##  2 2022-01-25          0.67       57       50     53.5 January 
##  3 2022-02-08          0.35       56       53     54.5 February
##  4 2022-03-12          0.41       79       48     63.5 March   
##  5 2022-03-15          1.04       84       67     75.5 March   
##  6 2022-03-24          1.42       77       63     70   March   
##  7 2022-04-01          1.37       83       68     75.5 April   
##  8 2022-04-02          1.11       83       65     74   April   
##  9 2022-04-07          1.34       81       71     76   April   
## 10 2022-04-29          1.22       89       69     79   April   
## # ℹ 42 more rows
```
…
unnestedcomments
```

```
## # A tibble: 32 × 3
## # Groups:   course [6]
##    course   word           n
##    <chr>    <fct>      <int>
##  1 MATH2025 professor      4
##  2 MATH430  math           4
##  3 MATH250  calc           3
##  4 MATH250  pre            3
##  5 MATH250  professor      3
##  6 MATH2860 class          3
##  7 MATH2860 lectures       3
##  8 MATH2860 professor      3
##  9 MATH430  understand     3
## 10 MATH890  class          3
## # ℹ 22 more rows
```
…
